package firs;

import java.util.Scanner;

public class Main {


    public static void main(String[] args) {


        Scanner in = new Scanner(System.in);
        System.out.println("З/П в час: ");
        double zp = in.nextDouble();
        System.out.println("Кол-во проработанных часов: ");
        double chasi = in.nextDouble();

        if (chasi > 60) {
            System.out.println("Работник не может работать более 60 часов/неделю.");
        }
        if (zp < 8) {
            System.out.println("Работник не может получать меньше 8 долларов/час.");
        }
        if (chasi > 40 && zp >= 8 && chasi <= 60) {


            chasi = (chasi - 40) * 1.5 + 40;
            double ZpVNedelu = chasi * zp;
            System.out.println(ZpVNedelu);

        } else if (chasi <= 40 && zp >= 8) {

            double ZpVNedelu = chasi * zp;
            System.out.println(ZpVNedelu);
        }


    }


}